…
* `env_stratification()` to perform environment stratification using factor analysis.

```r
model <-
env_stratification(data_ge,
                   env = ENV,
                   gen = GEN,
                   resp = everything())
gmd(model)
# Class of the model: env_stratification
# Variable extracted: env_strat
# # A tibble: 28 x 7
#    TRAIT ENV   MEGA_ENV  MEAN   MIN   MAX    CV
#    <chr> <chr> <chr>    <dbl> <dbl> <dbl> <dbl>
#  1 GY    E1    ME1       2.52 1.97   2.90 13.3 
#  2 GY    E10   ME1       2.18 1.54   2.57 14.4 
#  3 GY    E11   ME1       1.37 0.899  1.68 16.4 
#  4 GY    E12   ME1       1.61 1.02   2    20.3 
#  5 GY    E13   ME1       2.91 1.83   3.52 16.8 
#  6 GY    E5    ME1       3.91 3.37   4.81 10.7 
#  7 GY    E3    ME2       4.06 3.43   4.57  8.22
#  8 GY    E6    ME2       2.66 2.34   2.98  7.95
#  9 GY    E14   ME3       1.78 1.43   2.06 11.7 
# 10 GY    E8    ME3       2.54 2.05   2.88 10.5 
# # ... with 18 more rows
gmd(model, "FA")
# Class of the model: env_stratification
# Variable extracted: FA
# # A tibble: 28 x 9
#    TRAIT ENV       FA1     FA2      FA3     FA4     FA5 COMMUNALITY UNIQUENESSES
#    <chr> <chr>   <dbl>   <dbl>    <dbl>   <dbl>   <dbl>       <dbl>        <dbl>
#  1 GY    E1    -0.881   0.327   0.00927 -0.0631  0.274        0.963      0.0369 
#  2 GY    E10   -0.942  -0.158  -0.0820   0.113   0.174        0.962      0.0380 
#  3 GY    E11   -0.929  -0.233  -0.0336  -0.242   0.110        0.989      0.0111 
#  4 GY    E12   -0.848   0.135   0.0263   0.0941  0.241        0.805      0.195  
#  5 GY    E13   -0.940   0.108  -0.0842  -0.0637 -0.235        0.961      0.0391 
#  6 GY    E14   -0.150  -0.123  -0.916   -0.0872  0.265        0.954      0.0463 
#  7 GY    E2    -0.198  -0.0521 -0.126   -0.969   0.0328       0.997      0.00266
#  8 GY    E3    -0.0806  0.910   0.341   -0.0173 -0.110        0.963      0.0370 
#  9 GY    E4     0.209   0.543  -0.272   -0.728  -0.120        0.957      0.0433 
# 10 GY    E5    -0.777   0.392  -0.269   -0.0470 -0.267        0.904      0.0963 
# # ... with 18 more rows
```
…
