…
To compute the descriptive statistics by more than one grouping variable, we need to pass a grouped data to the argument .data with the function group_by(). Let’s compute the mean, the standard error of the mean and the sample size for the variables EP and EL for all combinations of the factors ENV and GEN.

data_ge2 %>% 
  group_by(ENV, GEN) %>% 
  desc_stat(EP, EL,
            stats = c("mean, se, n"))

## # A tibble: 104 x 6
##    ENV   GEN   variable   mean     se     n
##    <fct> <fct> <chr>     <dbl>  <dbl> <dbl>
##  1 A1    H1    EL       15.4   0.637      3
##  2 A1    H1    EP        0.626 0.0193     3
##  3 A1    H10   EL       16.1   0.600      3
##  4 A1    H10   EP        0.584 0.018      3
##  5 A1    H11   EL       16.6   0.475      3
##  6 A1    H11   EP        0.574 0.0147     3
##  7 A1    H12   EL       15.2   0.252      3
##  8 A1    H12   EP        0.575 0.0212     3
##  9 A1    H13   EL       14.8   0.0811     3
## 10 A1    H13   EP        0.568 0.026      3
## # ... with 94 more rows
